…
``` r
unnest(mu_sim, cols = c("result_df"))
```

    ## # A tibble: 35 x 10
    ##       mu result estimate statistic p.value parameter conf.low conf.high method
    ##    <dbl> <list>    <dbl>     <dbl>   <dbl>     <dbl>    <dbl>     <dbl> <chr> 
    ##  1     0 <list…    0.412     0.489  0.629         29   -1.31     2.14   One S…
    ##  2     0 <list…    0.664     0.914  0.368         29   -0.821    2.15   One S…
    ##  3     0 <list…    0.551     0.629  0.534         29   -1.24     2.34   One S…
    ##  4     0 <list…    0.567     0.704  0.487         29   -1.08     2.21   One S…
    ##  5     0 <list…   -1.65     -1.96   0.0599        29   -3.37     0.0731 One S…
    ##  6     1 <list…    2.19      2.27   0.0310        29    0.214    4.16   One S…
    ##  7     1 <list…    1.33      1.35   0.188         29   -0.691    3.36   One S…
    ##  8     1 <list…   -0.190    -0.205  0.839         29   -2.08     1.70   One S…
    ##  9     1 <list…    1.12      1.32   0.197         29   -0.616    2.86   One S…
    ## 10     1 <list…    1.68      1.79   0.0834        29   -0.237    3.60   One S…
    ## # … with 25 more rows, and 1 more variable: alternative <chr>
…
